http://libraries.ge.com/foldersIndex.do?entity_id=21509461101&sid=101&SF=1#40686002101
------------------------------------------------------------------
7:34 -> ICF KT 3 session
------------------------------------------------------------------
select a.*
from v$sqltext a,
v$session b
where a.address = b.sql_address
and a.hash_value = b.sql_hash_value
order by a.hash_value, a.piece;


---------------------------------------------------------------

select substr(s.sid,1,5) sid,
	substr(s.serial#,1,6) ser#,
	substr(spid,1,7) ospid,
	a.sql_text SQL,
	decode(s.terminal,null,'UNIX',s.terminal) ||': '|| s.osuser
		||'->'|| decode(s.username,s.osuser,null,s.username) identity;
	substr(s.program,instr(s.program,']',-1)+1,
	 decode(instr(s.program,'.',-1) - instr(s.program,']',-1)-1,-1,99,
		instr(s.program,'.',-1) - instr(s.program,']',-1)-1)) program,
	 substr(p.pid,1,3) pid,
	to_char(s.long_tine, 'DD>-HH24MI') Hora
from v$process p,
     v$sesstat t,
     V$session s,
     v$sqlarea a
where p.addr=s.paddr(+) and s.sid=t.sid and
      t.statistic#=12 and s.sql_address = a.address(+)
and s.username not in ('SYS','SYSTEM','DBSNMP','PATROL','SYSMAN')
order by s.logon_time;

---------------------------------------------------------------

AW records

validar el handler del activity o activitytype

tabla: DBA_HIST_ACTIVE_SESS_HISTORY -> v$active session history


planes de ejecucion

indices

store procedeurs

/wss/icl/7155a/components/trm/fk71/share/oracle/tables

/wss/icl/site/7.1.5.5.5a/share/oracle/ 
object.inc

tener acceso a los senders - DXL *

libros donde se reportan las transacciones
Central coporate ledger
data parking lot



select * from cmpl_queue; -> Cola de hotscan
icl_queueteable; -> mensajes de dpl






-----------------
dataflux

pedir acceso a :

https://trstwprsvnapv01.treasury.corp.ge.com/svn/Treasury/